{
    "key": "test-add-on",
    "name": "Create Issue Add-On",
    "description": "Test Add-On by Olga Sedlova",
    "vendor": {
        "name": "Test Company",
        "url": "http://testcompany.com"
    },
    "baseUrl": "https://7163e936.ngrok.io",
    "links": {
        "self": "{{localBaseUrl}}/atlassian-connect.json",
        "homepage": "{{localBaseUrl}}/atlassian-connect.json"
    },
    "authentication": {
        "type": "jwt"
    },
    "lifecycle": {
        "installed": "/installed"
    },
    "scopes": [
        "READ", "WRITE"
    ],
    "modules": {
        "generalPages": [
            {
                "key": "create-issue-jira",
                "location": "system.top.navigation.bar",
                "name": {
                    "value": "Create Issue"
                },
                "url": "/create-issue",
                "conditions": [{
                    "condition": "user_is_logged_in"
                }]
            },
            {
                "key": "create-issue-confluence",
                "location": "system.header/left",
                "name": {
                    "value": "Create Issue"
                },
                "url": "/create-issue",
                "conditions": [{
                    "condition": "user_is_logged_in"
                }]
            }
        ],
        "webhooks": [
            {
                "event": "jira:issue_created",
                "url": "/webhook/issue",
                "excludeBody": false
            },
            {
                "event": "jira:issue_updated",
                "url": "/webhook/issue",
                "excludeBody": false
            }
        ]
    }
}
